<?xml version="1.0" encoding="utf-8"?>
<!-- Generator: Adobe Illustrator 18.1.0, SVG Export Plug-In . SVG Version: 6.00 Build 0)  -->
<svg version="1.1" id="Layer_1" xmlns="http://www.w3.org/2000/svg" xmlns:xlink="http://www.w3.org/1999/xlink" x="0px" y="0px"
	 viewBox="28.4 238 555.9 311" enable-background="new 28.4 238 555.9 311" xml:space="preserve">
<g>
	<path fill="#FFFFFF" d="M31.1,509.7c1.5,2.4,3.8,3.7,6.8,3.7c3.7,0,6.6-2.2,6.6-5.8c0-8.3-15.2-3.4-15.2-14.7
		c0-5.3,4.5-8.1,9.5-8.1c3.2,0,6.1,1.1,8.1,3.7l-2.4,1.7c-1.4-1.9-3.2-2.9-5.8-2.9c-3.6,0-6.6,1.8-6.6,5.6c0,8.9,15.2,3.6,15.2,14.7
		c0,5.4-4.4,8.3-9.2,8.3c-3.9,0-7.3-1.3-9.6-4.5L31.1,509.7z"/>
	<path fill="#FFFFFF" d="M54.9,511.4c1.1,0,2,0.9,2,2s-0.9,2-2,2s-2-0.9-2-2S53.8,511.4,54.9,511.4z"/>
	<path fill="#FFFFFF" d="M64.4,485.6h7.8c2.3,0,10.6,0,10.6,7.8c0,5.7-4.3,7.2-7.5,7.6l8.6,14.2h-3.1l-8.3-14.1h-5.2v14.1h-2.8
		v-29.6H64.4z M67.2,498.6H73c5.8,0,6.9-3.2,6.9-5.3s-1.1-5.3-6.9-5.3h-5.9V498.6z"/>
	<path fill="#FFFFFF" d="M90.6,511.4c1.1,0,2,0.9,2,2s-0.9,2-2,2c-1.1,0-2-0.9-2-2S89.5,511.4,90.6,511.4z"/>
	<path fill="#FFFFFF" d="M111.7,509.7c1.5,2.4,3.8,3.7,6.8,3.7c3.7,0,6.6-2.2,6.6-5.8c0-8.3-15.2-3.4-15.2-14.7
		c0-5.3,4.5-8.1,9.5-8.1c3.2,0,6.1,1.1,8.1,3.7l-2.4,1.7c-1.4-1.9-3.2-2.9-5.8-2.9c-3.6,0-6.6,1.8-6.6,5.6c0,8.9,15.2,3.6,15.2,14.7
		c0,5.4-4.4,8.3-9.2,8.3c-3.9,0-7.3-1.3-9.6-4.5L111.7,509.7z"/>
	<path fill="#FFFFFF" d="M140.8,488.1h-10.1v-2.5h23v2.5h-10.1v27.1h-2.8L140.8,488.1L140.8,488.1z"/>
	<path fill="#FFFFFF" d="M164.5,485.6h2.9l12.4,29.6h-3.1l-3.2-7.9h-15.7l-3.4,7.9h-2.9L164.5,485.6z M165.8,488.6l-6.9,16.2h13.6
		L165.8,488.6z"/>
	<path fill="#FFFFFF" d="M208.4,510.6c-2.8,3.8-6.6,5.4-11,5.4c-9,0-15.3-6.5-15.3-15.6s6.3-15.6,15.3-15.6c4,0,7.6,1.3,10.2,4.6
		l-2.2,1.9c-1.8-2.8-5-4-8-4c-7.8,0-12.5,5.7-12.5,13.1c0,7.3,4.8,13.1,12.5,13.1c3,0,6.6-1.4,8.7-4.6L208.4,510.6z"/>
	<path fill="#FFFFFF" d="M213.5,485.6h2.8v13.1h0.3l14.3-13.1h3.8l-15,13.6l15.8,16.1h-3.9l-15-15.3h-0.3v15.3h-2.8L213.5,485.6
		L213.5,485.6z"/>
	<path fill="#FFFFFF" d="M266.3,506.6l4.3-7.7h2.9l-5.4,9.4l6.7,7.1h-3.7l-4.4-4.7c-2.4,3.2-5,5.3-9.2,5.3c-5,0-9-3.4-9-8.6
		c0-4.6,3.4-6.6,6.8-8.7c-1.7-2-3.6-4.3-3.6-7c0-4.3,3.5-6.7,7.4-6.7c3.5,0,6.7,2.5,6.7,6.3c0,4.3-3.3,6.1-6.6,7.9L266.3,506.6z
		 M256.7,500.3c-2.7,1.6-5.6,3.4-5.6,6.9c0,3.8,3,6.2,6.7,6.2c3.1,0,5.5-2.1,7.1-4.5L256.7,500.3z M254.3,491.5c0,2,1.9,4.3,3.2,5.7
		c2.3-1.2,5.5-2.8,5.5-5.9c0-2.3-1.7-4-4.1-4C256.3,487.3,254.3,489,254.3,491.5z"/>
	<path fill="#FFFFFF" d="M314.7,510.6c-2.8,3.8-6.6,5.4-11,5.4c-9,0-15.3-6.5-15.3-15.6s6.3-15.6,15.3-15.6c4,0,7.6,1.3,10.2,4.6
		l-2.2,1.9c-1.8-2.8-5-4-8-4c-7.8,0-12.5,5.7-12.5,13.1c0,7.3,4.8,13.1,12.5,13.1c3,0,6.6-1.4,8.7-4.6L314.7,510.6z"/>
	<path fill="#FFFFFF" d="M333.1,484.8c9,0,15.3,6.5,15.3,15.6c0,9-6.3,15.6-15.3,15.6s-15.3-6.5-15.3-15.6
		C317.8,491.3,324.1,484.8,333.1,484.8z M333.1,513.4c7.8,0,12.5-5.7,12.5-13.1s-4.8-13.1-12.5-13.1s-12.5,5.7-12.5,13.1
		C320.6,507.8,325.4,513.4,333.1,513.4z"/>
	<path fill="#FFFFFF" d="M354.3,485.6h4.1l10.8,24.8l10.8-24.8h3.9v29.6h-2.8v-26.1h-0.1l-11.3,26.1h-1.2l-11.5-26.1h-0.1v26.1h-2.8
		V485.6z"/>
	<path fill="#FFFFFF" d="M391.8,485.6h8.5c4.2,0,9.5,1.6,9.5,7.8c0,5.4-4.3,7.8-8.9,7.8h-6.4v14.1h-2.8V485.6z M394.6,498.6h6.3
		c3.2,0,6.3-1.3,6.3-5.3c0-3.8-3.3-5.3-6.4-5.3h-6.1V498.6z"/>
	<path fill="#FFFFFF" d="M421.8,485.6h2.9l12.4,29.6H434l-3.2-7.9h-15.7l-3.4,7.9h-2.9L421.8,485.6z M423.1,488.6l-6.9,16.2h13.6
		L423.1,488.6z"/>
	<path fill="#FFFFFF" d="M441.4,485.6h3.6l18,26h0.1v-26h2.8v29.6h-3.6l-18-26h-0.1v26h-2.8V485.6z"/>
	<path fill="#FFFFFF" d="M480.5,502.4l-10.9-16.9h3.3l9,14.1l9.2-14.1h3.1l-10.9,16.9v12.7h-2.8v-12.7H480.5z"/>
	<path fill="#FFFFFF" d="M508.8,485.6h2.8v27.1h13.8v2.5h-16.6L508.8,485.6L508.8,485.6z"/>
	<path fill="#FFFFFF" d="M532.5,488.1h-10.1v-2.5h23v2.5h-10.1v27.1h-2.8L532.5,488.1L532.5,488.1z"/>
	<path fill="#FFFFFF" d="M549.6,485.6h9.2c15.4,0,16,12.6,16,14.8c0,2.2-0.6,14.8-16,14.8h-9.2V485.6z M552.3,512.7h5.7
		c7.9,0,14-3.8,14-12.3c0-8.5-6.1-12.3-14-12.3h-5.7V512.7z"/>
	<path fill="#FFFFFF" d="M582.3,511.4c1.1,0,2,0.9,2,2s-0.9,2-2,2c-1.1,0-2-0.9-2-2S581.2,511.4,582.3,511.4z"/>
</g>
<g>
	<path fill="#FFFFFF" d="M191.9,537.1h-4.3v-1.1h9.7v1.1H193v11.5h-1.2L191.9,537.1L191.9,537.1z"/>
	<path fill="#FFFFFF" d="M200.8,536.1h3.3c1,0,4.5,0,4.5,3.3c0,2.4-1.8,3.1-3.2,3.2l3.7,6h-1.3l-3.5-6H202v6h-1.2V536.1z M202,541.6
		h2.5c2.4,0,3-1.4,3-2.2s-0.5-2.2-3-2.2H202V541.6z"/>
	<path fill="#FFFFFF" d="M221.7,543.8c0,2.7-1.2,5.1-4.6,5.1s-4.6-2.4-4.6-5.1v-7.8h1.2v7.4c0,1.8,0.5,4.3,3.4,4.3
		c2.9,0,3.4-2.6,3.4-4.3v-7.4h1.2V543.8z"/>
	<path fill="#FFFFFF" d="M226.8,546.3c0.6,1,1.6,1.6,2.9,1.6c1.6,0,2.8-1,2.8-2.4c0-3.5-6.5-1.5-6.5-6.2c0-2.2,1.9-3.4,4-3.4
		c1.4,0,2.5,0.5,3.4,1.6l-1,0.7c-0.6-0.8-1.4-1.2-2.4-1.2c-1.5,0-2.8,0.8-2.8,2.4c0,3.8,6.5,1.5,6.5,6.2c0,2.2-1.8,3.5-3.9,3.5
		c-1.6,0-3.1-0.5-4.1-1.9L226.8,546.3z"/>
	<path fill="#FFFFFF" d="M240.7,537.1h-4.3v-1.1h9.7v1.1h-4.3v11.5h-1.2V537.1z"/>
	<path fill="#FFFFFF" d="M249.6,536.1h7.6v1.1h-6.5v4.5h6.1v1.1h-6.1v4.9h6.8v1.1h-8L249.6,536.1L249.6,536.1z"/>
	<path fill="#FFFFFF" d="M261.7,536.1h7.7v1.1h-6.5v4.5h6.1v1.1h-6.1v4.9h6.8v1.1h-8L261.7,536.1L261.7,536.1z"/>
	<path fill="#FFFFFF" d="M279.9,536.1h1.2v12.5h-1.2V536.1z"/>
	<path fill="#FFFFFF" d="M286.1,536.1h1.5l7.6,11h0.1v-11h1.2v12.5h-1.5l-7.6-11h-0.1v11h-1.2V536.1z"/>
	<path fill="#FFFFFF" d="M307.6,536.1h3.6c1.9,0,4,0.5,4,3.3c0,1.3-0.8,2.3-2.2,2.6v0.1c1.6,0.1,2.8,1.3,2.8,3.1
		c0,2.9-2.5,3.5-4.2,3.5h-4L307.6,536.1L307.6,536.1z M308.8,541.5h2.4c2.4,0,2.9-1.3,2.9-2.1c0-1.7-1.2-2.2-2.8-2.2h-2.6V541.5z
		 M308.8,547.5h2.7c2.8,0,3.2-1.5,3.2-2.4c0-1.8-1.5-2.6-3-2.6h-2.9V547.5z"/>
	<path fill="#FFFFFF" d="M324.1,536.1h1.2l5.3,12.5h-1.3l-1.4-3.3h-6.6l-1.4,3.3h-1.2L324.1,536.1z M324.7,537.3l-2.9,6.9h5.8
		L324.7,537.3z"/>
	<path fill="#FFFFFF" d="M333.9,536.1h1.5l7.6,11h0.1v-11h1.2v12.5h-1.5l-7.6-11h-0.1v11h-1.2V536.1z"/>
	<path fill="#FFFFFF" d="M349.3,536.1h1.2v5.6h0.1l6.1-5.5h1.6l-6.4,5.7l6.7,6.8h-1.7l-6.3-6.5h-0.1v6.5h-1.2V536.1z"/>
	<path fill="#FFFFFF" d="M361.6,536.1h3.3c1,0,4.5,0,4.5,3.3c0,2.4-1.8,3.1-3.2,3.2l3.7,6h-1.3l-3.5-6h-2.2v6h-1.2L361.6,536.1
		L361.6,536.1z M362.8,541.6h2.5c2.4,0,3-1.4,3-2.2s-0.5-2.2-3-2.2h-2.5V541.6z"/>
	<path fill="#FFFFFF" d="M382.6,543.8c0,2.7-1.2,5.1-4.6,5.1c-3.4,0-4.6-2.4-4.6-5.1v-7.8h1.2v7.4c0,1.8,0.5,4.3,3.4,4.3
		c2.9,0,3.4-2.6,3.4-4.3v-7.4h1.2V543.8z"/>
	<path fill="#FFFFFF" d="M387.4,536.1h3.6c1.8,0,4,0.7,4,3.3c0,2.2-1.8,3.3-3.8,3.3h-2.7v6h-1.2V536.1z M388.6,541.6h2.7
		c1.3,0,2.7-0.6,2.7-2.2s-1.4-2.2-2.8-2.2h-2.6L388.6,541.6L388.6,541.6z"/>
	<path fill="#FFFFFF" d="M401.9,537.1h-4.3v-1.1h9.7v1.1h-4.3v11.5h-1.2V537.1z"/>
	<path fill="#FFFFFF" d="M421.2,546.7c-1.2,1.6-2.8,2.3-4.6,2.3c-3.8,0-6.5-2.8-6.5-6.6c0-3.8,2.7-6.6,6.5-6.6c1.7,0,3.2,0.6,4.3,2
		l-1,0.8c-0.8-1.2-2.1-1.7-3.4-1.7c-3.3,0-5.3,2.4-5.3,5.5s2,5.5,5.3,5.5c1.3,0,2.8-0.6,3.7-1.9L421.2,546.7z"/>
	<path fill="#FFFFFF" d="M427.6,543.2l-4.6-7.1h1.4l3.8,6l3.9-6h1.3l-4.6,7.1v5.4h-1.2V543.2z"/>
</g>
<polygon fill="#FFFFFF" points="363.8,288.1 273.2,378.8 250.1,328.3 340.8,238 "/>
<polygon fill="#FFFFFF" points="370.5,362.4 279.9,453 256.8,402.6 347.5,311.9 "/>
</svg>
